{
    "elements":
    [
        { "type": "ValidationTextBox", "name": "IPSTvCl_Username", "caption": "Username:" },
        { "type": "ValidationTextBox", "name": "IPSTvCl_Password", "caption": "Password:" },
        { "type": "ValidationTextBox", "name": "IPSTvCl_IP", "caption": "IP des TV Servers:" },
		{ "type": "ValidationTextBox", "name": "IPSTvCl_Port", "caption": "Port des TV Servers:" },
        { "type": "Select", "name": "IPSTvCl_SrvType", "caption": "Tv Server Software:",
        "options": [
            { "label": "TVHeadend", "value": 0 }
        ]
        },
        { "type": "NumberSpinner", "name": "IPSTvCl_Intervall", "caption": "Aktualisierungsintervall:" }
    ],
    "actions":
    [
        { "type": "Button", "label": "Update", "onClick": "IPSTvCl_Update($id);" }
    ],
    "status":
    [
        { "code": 102, "icon": "active", "caption": "Login information valid" },
        { "code": 201, "icon": "error", "caption": "Authentication failed" },
		{ "code": 202, "icon": "error", "caption": "Connection failed" },
		{ "code": 203, "icon": "error", "caption": "Unknown Error" },
    ]
}